verilog/pixelTop.vcd
$date
	Fri Nov 19 09:20:13 2021
$end
$version
	Icarus Verilog
$end
$timescale
	1ps
$end
$scope module pixelTop_tb $end
$var wire 48 ! DataOut [47:0] $end
$var reg 1 " clk $end
$var reg 1 # reset $end
$scope module pixtop $end
$var wire 1 $ anaReset $end
$var wire 1 " clk $end
$var wire 48 % pixData [47:0] $end
$var wire 1 # reset $end
$var wire 2 & readBus [1:0] $end
$var wire 8 ' grayCounter [7:0] $end
$var wire 1 ( expose $end
$var wire 1 ) erase $end
$var wire 1 * convert $end
$var wire 24 + binaryBus [23:0] $end
$var wire 1 , anaRamp $end
$var wire 1 - anaBias1 $end
$var reg 24 . grayBus [23:0] $end
$var reg 48 / pixelDataOut [47:0] $end
$var integer 32 0 i [31:0] $end
$var integer 32 1 y [31:0] $end
$scope begin genblk1[0] $end
$scope module conv $end
$var wire 1 " clk $end
$var wire 8 2 grayValue [7:0] $end
$var wire 1 # reset $end
$var reg 8 3 binaryValue [7:0] $end
$var reg 1 4 lastXOR $end
$scope begin $ivl_for_loop1 $end
$var integer 32 5 i [31:0] $end
$upscope $end
$upscope $end
$upscope $end
$scope begin genblk1[1] $end
$scope module conv $end
$var wire 1 " clk $end
$var wire 8 6 grayValue [7:0] $end
$var wire 1 # reset $end
$var reg 8 7 binaryValue [7:0] $end
$var reg 1 8 lastXOR $end
$scope begin $ivl_for_loop1 $end
$var integer 32 9 i [31:0] $end
$upscope $end
$upscope $end
$upscope $end
$scope begin genblk1[2] $end
$scope module conv $end
$var wire 1 " clk $end
$var wire 8 : grayValue [7:0] $end
$var wire 1 # reset $end
$var reg 8 ; binaryValue [7:0] $end
$var reg 1 < lastXOR $end
$scope begin $ivl_for_loop1 $end
$var integer 32 = i [31:0] $end
$upscope $end
$upscope $end
$upscope $end
$scope begin genblk2[0] $end
$scope begin genblk3[0] $end
$upscope $end
$scope begin genblk3[1] $end
$upscope $end
$scope begin genblk3[2] $end
$upscope $end
$upscope $end
$scope begin genblk2[1] $end
$scope begin genblk3[0] $end
$upscope $end
$scope begin genblk3[1] $end
$upscope $end
$scope begin genblk3[2] $end
$upscope $end
$upscope $end
$scope module fsm $end
$var wire 1 " clk $end
$var wire 1 # reset $end
$var reg 1 * convert $end
$var reg 1 ) erase $end
$var reg 1 ( expose $end
$var reg 3 > next_state [2:0] $end
$var reg 2 ? read [1:0] $end
$var reg 3 @ state [2:0] $end
$var integer 32 A counter [31:0] $end
$var integer 32 B pixelToRead [31:0] $end
$upscope $end
$scope module graycount $end
$var wire 1 " clk $end
$var wire 1 * convert $end
$var wire 1 # reset $end
$var reg 8 C grayClk [7:0] $end
$var reg 8 D qunt [7:0] $end
$scope begin $ivl_for_loop0 $end
$var integer 32 E i [31:0] $end
$upscope $end
$upscope $end
$scope module pixArr $end
$var wire 48 F DATABUS [47:0] $end
$var wire 1 ) ERASE $end
$var wire 1 ( EXPOSE $end
$var wire 1 , RAMP $end
$var wire 2 G READBUS [1:0] $end
$var wire 1 $ RESET $end
$var wire 1 - VBN1 $end
$scope begin genblk1[0] $end
$scope begin genblk2[0] $end
$scope module s $end
$var wire 8 H DATA [7:0] $end
$var wire 1 ) ERASE $end
$var wire 1 ( EXPOSE $end
$var wire 1 , RAMP $end
$var wire 1 I READ $end
$var wire 1 $ RESET $end
$var wire 1 - VBN1 $end
$var reg 1 J cmp $end
$var reg 8 K p_data [7:0] $end
$var real 1 L adc $end
$var real 1 M lsb $end
$var real 1 N tmp $end
$var real 1 O v_erase $end
$upscope $end
$upscope $end
$scope begin genblk2[1] $end
$scope module s $end
$var wire 8 P DATA [7:0] $end
$var wire 1 ) ERASE $end
$var wire 1 ( EXPOSE $end
$var wire 1 , RAMP $end
$var wire 1 Q READ $end
$var wire 1 $ RESET $end
$var wire 1 - VBN1 $end
$var reg 1 R cmp $end
$var reg 8 S p_data [7:0] $end
$var real 1 T adc $end
$var real 1 U lsb $end
$var real 1 V tmp $end
$var real 1 W v_erase $end
$upscope $end
$upscope $end
$scope begin genblk2[2] $end
$scope module s $end
$var wire 8 X DATA [7:0] $end
$var wire 1 ) ERASE $end
$var wire 1 ( EXPOSE $end
$var wire 1 , RAMP $end
$var wire 1 Y READ $end
$var wire 1 $ RESET $end
$var wire 1 - VBN1 $end
$var reg 1 Z cmp $end
$var reg 8 [ p_data [7:0] $end
$var real 1 \ adc $end
$var real 1 ] lsb $end
$var real 1 ^ tmp $end
$var real 1 _ v_erase $end
$upscope $end
$upscope $end
$upscope $end
$scope begin genblk1[1] $end
$scope begin genblk2[0] $end
$scope module s $end
$var wire 8 ` DATA [7:0] $end
$var wire 1 ) ERASE $end
$var wire 1 ( EXPOSE $end
$var wire 1 , RAMP $end
$var wire 1 a READ $end
$var wire 1 $ RESET $end
$var wire 1 - VBN1 $end
$var reg 1 b cmp $end
$var reg 8 c p_data [7:0] $end
$var real 1 d adc $end
$var real 1 e lsb $end
$var real 1 f tmp $end
$var real 1 g v_erase $end
$upscope $end
$upscope $end
$scope begin genblk2[1] $end
$scope module s $end
$var wire 8 h DATA [7:0] $end
$var wire 1 ) ERASE $end
$var wire 1 ( EXPOSE $end
$var wire 1 , RAMP $end
$var wire 1 i READ $end
$var wire 1 $ RESET $end
$var wire 1 - VBN1 $end
$var reg 1 j cmp $end
$var reg 8 k p_data [7:0] $end
$var real 1 l adc $end
$var real 1 m lsb $end
$var real 1 n tmp $end
$var real 1 o v_erase $end
$upscope $end
$upscope $end
$scope begin genblk2[2] $end
$scope module s $end
$var wire 8 p DATA [7:0] $end
$var wire 1 ) ERASE $end
$var wire 1 ( EXPOSE $end
$var wire 1 , RAMP $end
$var wire 1 q READ $end
$var wire 1 $ RESET $end
$var wire 1 - VBN1 $end
$var reg 1 r cmp $end
$var reg 8 s p_data [7:0] $end
$var real 1 t adc $end
$var real 1 u lsb $end
$var real 1 v tmp $end
$var real 1 w v_erase $end
$upscope $end
$upscope $end
$upscope $end
$upscope $end
$upscope $end
$upscope $end
$enddefinitions $end
#500000
$dumpvars
r1.2 w
r0 v
r0.004705882352941176 u
r0 t
bx s
xr
xq
bx p
r1.2 o
r0 n
r0.004705882352941176 m
r0 l
bx k
xj
xi
bx h
r1.2 g
r0 f
r0.004705882352941176 e
r0 d
bx c
xb
xa
bx `
r1.2 _
r0 ^
r0.004705882352941176 ]
r0 \
bx [
xZ
xY
bx X
r1.2 W
r0 V
r0.004705882352941176 U
r0 T
bx S
xR
xQ
bx P
r1.2 O
r0 N
r0.004705882352941176 M
r0 L
bx K
xJ
xI
bx H
bx G
bx F
b111 E
b0 D
b0 C
b0 B
b0 A
b0 @
bx ?
b0 >
b110 =
x<
bx0000000 ;
bx :
b110 9
x8
bx0000000 7
bx 6
b110 5
x4
bx0000000 3
bx 2
b0 1
b10 0
b0 /
bx .
x-
0,
bx0000000x0000000x0000000 +
0*
x)
x(
b0 '
bx &
bx %
1$
0#
1"
b0 !
$end
#1000000
b0 H
b0 P
b0 X
b0 `
b0 h
b0 p
b0 %
b0 F
0I
0Q
0Y
0a
0i
0q
0r
b0 s
r1.2 v
0j
b0 k
r1.2 n
0b
b0 c
r1.2 f
0Z
b0 [
r1.2 ^
0R
b0 S
r1.2 V
0J
b0 K
r1.2 N
0(
b0 &
b0 ?
b0 G
1)
0-
0"
#1500000
b111 E
b110 =
b110 9
b110 5
b1 A
b10 0
1"
#2000000
0"
#2500000
b111 E
b110 =
b110 9
b110 5
b10 0
b10 A
1"
#3000000
0"
#3500000
b111 E
b110 =
b110 9
b110 5
b11 A
b10 0
1"
#4000000
0"
#4500000
b111 E
b110 =
b110 9
b110 5
b10 0
b100 A
1"
#5000000
0"
#5500000
b111 E
b110 =
b110 9
b110 5
b101 A
b10 0
1"
#6000000
0"
#6500000
b100 @
b1 >
b111 E
b110 =
b110 9
b110 5
b10 0
b110 A
1"
#7000000
0)
0"
#7500000
b1 @
b111 E
b110 =
b110 9
b110 5
b0 A
b10 0
1"
#8000000
1(
0"
#8500000
r1.197647058823529 v
r1.197647058823529 n
r1.197647058823529 f
r1.197647058823529 ^
r1.197647058823529 V
r1.197647058823529 N
1-
b111 E
b110 =
b110 9
b110 5
b10 0
b1 A
1"
#9000000
0-
0"
#9500000
r1.195294117647059 N
r1.195294117647059 V
r1.195294117647059 ^
r1.195294117647059 f
r1.195294117647059 n
r1.195294117647059 v
1-
b111 E
b110 =
b110 9
b110 5
b10 A
b10 0
1"
#10000000
0-
0"
#10500000
r1.192941176470588 v
r1.192941176470588 n
r1.192941176470588 f
r1.192941176470588 ^
r1.192941176470588 V
r1.192941176470588 N
1-
b111 E
b110 =
b110 9
b110 5
b10 0
b11 A
1"
#11000000
0-
0"
#11500000
r1.190588235294117 N
r1.190588235294117 V
r1.190588235294117 ^
r1.190588235294117 f
r1.190588235294117 n
r1.190588235294117 v
1-
b111 E
b110 =
b110 9
b110 5
b100 A
b10 0
1"
#12000000
0-
0"
#12500000
r1.188235294117647 v
r1.188235294117647 n
r1.188235294117647 f
r1.188235294117647 ^
r1.188235294117647 V
r1.188235294117647 N
1-
b111 E
b110 =
b110 9
b110 5
b10 0
b101 A
1"
#13000000
0-
0"
#13500000
r1.185882352941176 N
r1.185882352941176 V
r1.185882352941176 ^
r1.185882352941176 f
r1.185882352941176 n
r1.185882352941176 v
1-
b111 E
b110 =
b110 9
b110 5
b110 A
b10 0
1"
#14000000
0-
0"
#14500000
r1.183529411764705 v
r1.183529411764705 n
r1.183529411764705 f
r1.183529411764705 ^
r1.183529411764705 V
r1.183529411764705 N
1-
b111 E
b110 =
b110 9
b110 5
b10 0
b111 A
1"
#15000000
0-
0"
#15500000
r1.181176470588235 N
r1.181176470588235 V
r1.181176470588235 ^
r1.181176470588235 f
r1.181176470588235 n
r1.181176470588235 v
1-
b111 E
b110 =
b110 9
b110 5
b1000 A
b10 0
1"
#16000000
0-
0"
#16500000
r1.178823529411764 v
r1.178823529411764 n
r1.178823529411764 f
r1.178823529411764 ^
r1.178823529411764 V
r1.178823529411764 N
1-
b111 E
b110 =
b110 9
b110 5
b10 0
b1001 A
1"
#17000000
0-
0"
#17500000
r1.176470588235293 N
r1.176470588235293 V
r1.176470588235293 ^
r1.176470588235293 f
r1.176470588235293 n
r1.176470588235293 v
1-
b111 E
b110 =
b110 9
b110 5
b1010 A
b10 0
1"
#18000000
0-
0"
#18500000
r1.174117647058823 v
r1.174117647058823 n
r1.174117647058823 f
r1.174117647058823 ^
r1.174117647058823 V
r1.174117647058823 N
1-
b111 E
b110 =
b110 9
b110 5
b10 0
b1011 A
1"
#19000000
0-
0"
#19500000
r1.171764705882352 N
r1.171764705882352 V
r1.171764705882352 ^
r1.171764705882352 f
r1.171764705882352 n
r1.171764705882352 v
1-
b111 E
b110 =
b110 9
b110 5
b1100 A
b10 0
1"
#20000000
0-
0"
#20500000
r1.169411764705881 v
r1.169411764705881 n
r1.169411764705881 f
r1.169411764705881 ^
r1.169411764705881 V
r1.169411764705881 N
1-
b111 E
b110 =
b110 9
b110 5
b10 0
b1101 A
1"
#21000000
0-
0"
#21500000
r1.167058823529411 N
r1.167058823529411 V
r1.167058823529411 ^
r1.167058823529411 f
r1.167058823529411 n
r1.167058823529411 v
1-
b111 E
b110 =
b110 9
b110 5
b1110 A
b10 0
1"
#22000000
0-
0"
#22500000
r1.16470588235294 v
r1.16470588235294 n
r1.16470588235294 f
r1.16470588235294 ^
r1.16470588235294 V
r1.16470588235294 N
1-
b111 E
b110 =
b110 9
b110 5
b10 0
b1111 A
1"
#23000000
0-
0"
#23500000
r1.162352941176469 N
r1.162352941176469 V
r1.162352941176469 ^
r1.162352941176469 f
r1.162352941176469 n
r1.162352941176469 v
1-
b111 E
b110 =
b110 9
b110 5
b10000 A
b10 0
1"
#24000000
0-
0"
#24500000
r1.159999999999999 v
r1.159999999999999 n
r1.159999999999999 f
r1.159999999999999 ^
r1.159999999999999 V
r1.159999999999999 N
1-
b111 E
b110 =
b110 9
b110 5
b10 0
b10001 A
1"
#25000000
0-
0"
#25500000
r1.157647058823528 N
r1.157647058823528 V
r1.157647058823528 ^
r1.157647058823528 f
r1.157647058823528 n
r1.157647058823528 v
1-
b111 E
b110 =
b110 9
b110 5
b10010 A
b10 0
1"
#26000000
0-
0"
#26500000
r1.155294117647057 v
r1.155294117647057 n
r1.155294117647057 f
r1.155294117647057 ^
r1.155294117647057 V
r1.155294117647057 N
1-
b111 E
b110 =
b110 9
b110 5
b10 0
b10011 A
1"
#27000000
0-
0"
#27500000
r1.152941176470587 N
r1.152941176470587 V
r1.152941176470587 ^
r1.152941176470587 f
r1.152941176470587 n
r1.152941176470587 v
1-
b111 E
b110 =
b110 9
b110 5
b10100 A
b10 0
1"
#28000000
0-
0"
#28500000
r1.150588235294116 v
r1.150588235294116 n
r1.150588235294116 f
r1.150588235294116 ^
r1.150588235294116 V
r1.150588235294116 N
1-
b111 E
b110 =
b110 9
b110 5
b10 0
b10101 A
1"
#29000000
0-
0"
#29500000
r1.148235294117645 N
r1.148235294117645 V
r1.148235294117645 ^
r1.148235294117645 f
r1.148235294117645 n
r1.148235294117645 v
1-
b111 E
b110 =
b110 9
b110 5
b10110 A
b10 0
1"
#30000000
0-
0"
#30500000
r1.145882352941175 v
r1.145882352941175 n
r1.145882352941175 f
r1.145882352941175 ^
r1.145882352941175 V
r1.145882352941175 N
1-
b111 E
b110 =
b110 9
b110 5
b10 0
b10111 A
1"
#31000000
0-
0"
#31500000
r1.143529411764704 N
r1.143529411764704 V
r1.143529411764704 ^
r1.143529411764704 f
r1.143529411764704 n
r1.143529411764704 v
1-
b111 E
b110 =
b110 9
b110 5
b11000 A
b10 0
1"
#32000000
0-
0"
#32500000
r1.141176470588233 v
r1.141176470588233 n
r1.141176470588233 f
r1.141176470588233 ^
r1.141176470588233 V
r1.141176470588233 N
1-
b111 E
b110 =
b110 9
b110 5
b10 0
b11001 A
1"
#33000000
0-
0"
#33500000
r1.138823529411763 N
r1.138823529411763 V
r1.138823529411763 ^
r1.138823529411763 f
r1.138823529411763 n
r1.138823529411763 v
1-
b111 E
b110 =
b110 9
b110 5
b11010 A
b10 0
1"
#34000000
0-
0"
#34500000
r1.136470588235292 v
r1.136470588235292 n
r1.136470588235292 f
r1.136470588235292 ^
r1.136470588235292 V
r1.136470588235292 N
1-
b111 E
b110 =
b110 9
b110 5
b10 0
b11011 A
1"
#35000000
0-
0"
#35500000
r1.134117647058821 N
r1.134117647058821 V
r1.134117647058821 ^
r1.134117647058821 f
r1.134117647058821 n
r1.134117647058821 v
1-
b111 E
b110 =
b110 9
b110 5
b11100 A
b10 0
1"
#36000000
0-
0"
#36500000
r1.131764705882351 v
r1.131764705882351 n
r1.131764705882351 f
r1.131764705882351 ^
r1.131764705882351 V
r1.131764705882351 N
1-
b111 E
b110 =
b110 9
b110 5
b10 0
b11101 A
1"
#37000000
0-
0"
#37500000
r1.12941176470588 N
r1.12941176470588 V
r1.12941176470588 ^
r1.12941176470588 f
r1.12941176470588 n
r1.12941176470588 v
1-
b111 E
b110 =
b110 9
b110 5
b11110 A
b10 0
1"
#38000000
0-
0"
#38500000
r1.127058823529409 v
r1.127058823529409 n
r1.127058823529409 f
r1.127058823529409 ^
r1.127058823529409 V
r1.127058823529409 N
1-
b111 E
b110 =
b110 9
b110 5
b10 0
b11111 A
1"
#39000000
0-
0"
#39500000
r1.124705882352939 N
r1.124705882352939 V
r1.124705882352939 ^
r1.124705882352939 f
r1.124705882352939 n
r1.124705882352939 v
1-
b111 E
b110 =
b110 9
b110 5
b100000 A
b10 0
1"
#40000000
0-
0"
#40500000
r1.122352941176468 v
r1.122352941176468 n
r1.122352941176468 f
r1.122352941176468 ^
r1.122352941176468 V
r1.122352941176468 N
1-
b111 E
b110 =
b110 9
b110 5
b10 0
b100001 A
1"
#41000000
0-
0"
#41500000
r1.119999999999997 N
r1.119999999999997 V
r1.119999999999997 ^
r1.119999999999997 f
r1.119999999999997 n
r1.119999999999997 v
1-
b111 E
b110 =
b110 9
b110 5
b100010 A
b10 0
1"
#42000000
0-
0"
#42500000
r1.117647058823527 v
r1.117647058823527 n
r1.117647058823527 f
r1.117647058823527 ^
r1.117647058823527 V
r1.117647058823527 N
1-
b111 E
b110 =
b110 9
b110 5
b10 0
b100011 A
1"
#43000000
0-
0"
#43500000
r1.115294117647056 N
r1.115294117647056 V
r1.115294117647056 ^
r1.115294117647056 f
r1.115294117647056 n
r1.115294117647056 v
1-
b111 E
b110 =
b110 9
b110 5
b100100 A
b10 0
1"
#44000000
0-
0"
#44500000
r1.112941176470585 v
r1.112941176470585 n
r1.112941176470585 f
r1.112941176470585 ^
r1.112941176470585 V
r1.112941176470585 N
1-
b111 E
b110 =
b110 9
b110 5
b10 0
b100101 A
1"
#45000000
0-
0"
#45500000
r1.110588235294115 N
r1.110588235294115 V
r1.110588235294115 ^
r1.110588235294115 f
r1.110588235294115 n
r1.110588235294115 v
1-
b111 E
b110 =
b110 9
b110 5
b100110 A
b10 0
1"
#46000000
0-
0"
#46500000
r1.108235294117644 v
r1.108235294117644 n
r1.108235294117644 f
r1.108235294117644 ^
r1.108235294117644 V
r1.108235294117644 N
1-
b111 E
b110 =
b110 9
b110 5
b10 0
b100111 A
1"
#47000000
0-
0"
#47500000
r1.105882352941173 N
r1.105882352941173 V
r1.105882352941173 ^
r1.105882352941173 f
r1.105882352941173 n
r1.105882352941173 v
1-
b111 E
b110 =
b110 9
b110 5
b101000 A
b10 0
1"
#48000000
0-
0"
#48500000
r1.103529411764703 v
r1.103529411764703 n
r1.103529411764703 f
r1.103529411764703 ^
r1.103529411764703 V
r1.103529411764703 N
1-
b111 E
b110 =
b110 9
b110 5
b10 0
b101001 A
1"
#49000000
0-
0"
#49500000
r1.101176470588232 N
r1.101176470588232 V
r1.101176470588232 ^
r1.101176470588232 f
r1.101176470588232 n
r1.101176470588232 v
1-
b111 E
b110 =
b110 9
b110 5
b101010 A
b10 0
1"
#50000000
0-
0"
#50500000
r1.098823529411761 v
r1.098823529411761 n
r1.098823529411761 f
r1.098823529411761 ^
r1.098823529411761 V
r1.098823529411761 N
1-
b111 E
b110 =
b110 9
b110 5
b10 0
b101011 A
1"
#51000000
0-
0"
#51500000
r1.096470588235291 N
r1.096470588235291 V
r1.096470588235291 ^
r1.096470588235291 f
r1.096470588235291 n
r1.096470588235291 v
1-
b111 E
b110 =
b110 9
b110 5
b101100 A
b10 0
1"
#52000000
0-
0"
#52500000
r1.09411764705882 v
r1.09411764705882 n
r1.09411764705882 f
r1.09411764705882 ^
r1.09411764705882 V
r1.09411764705882 N
1-
b111 E
b110 =
b110 9
b110 5
b10 0
b101101 A
1"
#53000000
0-
0"
#53500000
r1.091764705882349 N
r1.091764705882349 V
r1.091764705882349 ^
r1.091764705882349 f
r1.091764705882349 n
r1.091764705882349 v
1-
b111 E
b110 =
b110 9
b110 5
b101110 A
b10 0
1"
#54000000
0-
0"
#54500000
r1.089411764705879 v
r1.089411764705879 n
r1.089411764705879 f
r1.089411764705879 ^
r1.089411764705879 V
r1.089411764705879 N
1-
b111 E
b110 =
b110 9
b110 5
b10 0
b101111 A
1"
#55000000
0-
0"
#55500000
r1.087058823529408 N
r1.087058823529408 V
r1.087058823529408 ^
r1.087058823529408 f
r1.087058823529408 n
r1.087058823529408 v
1-
b111 E
b110 =
b110 9
b110 5
b110000 A
b10 0
1"
#56000000
0-
0"
#56500000
r1.084705882352937 v
r1.084705882352937 n
r1.084705882352937 f
r1.084705882352937 ^
r1.084705882352937 V
r1.084705882352937 N
1-
b111 E
b110 =
b110 9
b110 5
b10 0
b110001 A
1"
#57000000
0-
0"
#57500000
r1.082352941176467 N
r1.082352941176467 V
r1.082352941176467 ^
r1.082352941176467 f
r1.082352941176467 n
r1.082352941176467 v
1-
b111 E
b110 =
b110 9
b110 5
b110010 A
b10 0
1"
#58000000
0-
0"
#58500000
r1.079999999999996 v
r1.079999999999996 n
r1.079999999999996 f
r1.079999999999996 ^
r1.079999999999996 V
r1.079999999999996 N
1-
b111 E
b110 =
b110 9
b110 5
b10 0
b110011 A
1"
#59000000
0-
0"
#59500000
r1.077647058823525 N
r1.077647058823525 V
r1.077647058823525 ^
r1.077647058823525 f
r1.077647058823525 n
r1.077647058823525 v
1-
b111 E
b110 =
b110 9
b110 5
b110100 A
b10 0
1"
#60000000
0-
0"
#60500000
r1.075294117647055 v
r1.075294117647055 n
r1.075294117647055 f
r1.075294117647055 ^
r1.075294117647055 V
r1.075294117647055 N
1-
b111 E
b110 =
b110 9
b110 5
b10 0
b110101 A
1"
#61000000
0-
0"
#61500000
r1.072941176470584 N
r1.072941176470584 V
r1.072941176470584 ^
r1.072941176470584 f
r1.072941176470584 n
r1.072941176470584 v
1-
b111 E
b110 =
b110 9
b110 5
b110110 A
b10 0
1"
#62000000
0-
0"
#62500000
r1.070588235294113 v
r1.070588235294113 n
r1.070588235294113 f
r1.070588235294113 ^
r1.070588235294113 V
r1.070588235294113 N
1-
b111 E
b110 =
b110 9
b110 5
b10 0
b110111 A
1"
#63000000
0-
0"
#63500000
r1.068235294117643 N
r1.068235294117643 V
r1.068235294117643 ^
r1.068235294117643 f
r1.068235294117643 n
r1.068235294117643 v
1-
b111 E
b110 =
b110 9
b110 5
b111000 A
b10 0
1"
#64000000
0-
0"
#64500000
r1.065882352941172 v
r1.065882352941172 n
r1.065882352941172 f
r1.065882352941172 ^
r1.065882352941172 V
r1.065882352941172 N
1-
b111 E
b110 =
b110 9
b110 5
b10 0
b111001 A
1"
#65000000
0-
0"
#65500000
r1.063529411764701 N
r1.063529411764701 V
r1.063529411764701 ^
r1.063529411764701 f
r1.063529411764701 n
r1.063529411764701 v
1-
b111 E
b110 =
b110 9
b110 5
b111010 A
b10 0
1"
#66000000
0-
0"
#66500000
r1.061176470588231 v
r1.061176470588231 n
r1.061176470588231 f
r1.061176470588231 ^
r1.061176470588231 V
r1.061176470588231 N
1-
b111 E
b110 =
b110 9
b110 5
b10 0
b111011 A
1"
#67000000
0-
0"
#67500000
r1.05882352941176 N
r1.05882352941176 V
r1.05882352941176 ^
r1.05882352941176 f
r1.05882352941176 n
r1.05882352941176 v
1-
b111 E
b110 =
b110 9
b110 5
b111100 A
b10 0
1"
#68000000
0-
0"
#68500000
r1.056470588235289 v
r1.056470588235289 n
r1.056470588235289 f
r1.056470588235289 ^
r1.056470588235289 V
r1.056470588235289 N
1-
b111 E
b110 =
b110 9
b110 5
b10 0
b111101 A
1"
#69000000
0-
0"
#69500000
r1.054117647058818 N
r1.054117647058818 V
r1.054117647058818 ^
r1.054117647058818 f
r1.054117647058818 n
r1.054117647058818 v
1-
b111 E
b110 =
b110 9
b110 5
b111110 A
b10 0
1"
#70000000
0-
0"
#70500000
r1.051764705882348 v
r1.051764705882348 n
r1.051764705882348 f
r1.051764705882348 ^
r1.051764705882348 V
r1.051764705882348 N
1-
b111 E
b110 =
b110 9
b110 5
b10 0
b111111 A
1"
#71000000
0-
0"
#71500000
r1.049411764705877 N
r1.049411764705877 V
r1.049411764705877 ^
r1.049411764705877 f
r1.049411764705877 n
r1.049411764705877 v
1-
b111 E
b110 =
b110 9
b110 5
b1000000 A
b10 0
1"
#72000000
0-
0"
#72500000
r1.047058823529406 v
r1.047058823529406 n
r1.047058823529406 f
r1.047058823529406 ^
r1.047058823529406 V
r1.047058823529406 N
1-
b111 E
b110 =
b110 9
b110 5
b10 0
b1000001 A
1"
#73000000
0-
0"
#73500000
r1.044705882352936 N
r1.044705882352936 V
r1.044705882352936 ^
r1.044705882352936 f
r1.044705882352936 n
r1.044705882352936 v
1-
b111 E
b110 =
b110 9
b110 5
b1000010 A
b10 0
1"
#74000000
0-
0"
#74500000
r1.042352941176465 v
r1.042352941176465 n
r1.042352941176465 f
r1.042352941176465 ^
r1.042352941176465 V
r1.042352941176465 N
1-
b111 E
b110 =
b110 9
b110 5
b10 0
b1000011 A
1"
#75000000
0-
0"
#75500000
r1.039999999999994 N
r1.039999999999994 V
r1.039999999999994 ^
r1.039999999999994 f
r1.039999999999994 n
r1.039999999999994 v
1-
b111 E
b110 =
b110 9
b110 5
b1000100 A
b10 0
1"
#76000000
0-
0"
#76500000
r1.037647058823524 v
r1.037647058823524 n
r1.037647058823524 f
r1.037647058823524 ^
r1.037647058823524 V
r1.037647058823524 N
1-
b111 E
b110 =
b110 9
b110 5
b10 0
b1000101 A
1"
#77000000
0-
0"
#77500000
r1.035294117647053 N
r1.035294117647053 V
r1.035294117647053 ^
r1.035294117647053 f
r1.035294117647053 n
r1.035294117647053 v
1-
b111 E
b110 =
b110 9
b110 5
b1000110 A
b10 0
1"
#78000000
0-
0"
#78500000
r1.032941176470582 v
r1.032941176470582 n
r1.032941176470582 f
r1.032941176470582 ^
r1.032941176470582 V
r1.032941176470582 N
1-
b111 E
b110 =
b110 9
b110 5
b10 0
b1000111 A
1"
#79000000
0-
0"
#79500000
r1.030588235294112 N
r1.030588235294112 V
r1.030588235294112 ^
r1.030588235294112 f
r1.030588235294112 n
r1.030588235294112 v
1-
b111 E
b110 =
b110 9
b110 5
b1001000 A
b10 0
1"
#80000000
0-
0"
#80500000
r1.028235294117641 v
r1.028235294117641 n
r1.028235294117641 f
r1.028235294117641 ^
r1.028235294117641 V
r1.028235294117641 N
1-
b111 E
b110 =
b110 9
b110 5
b10 0
b1001001 A
1"
#81000000
0-
0"
#81500000
r1.02588235294117 N
r1.02588235294117 V
r1.02588235294117 ^
r1.02588235294117 f
r1.02588235294117 n
r1.02588235294117 v
1-
b111 E
b110 =
b110 9
b110 5
b1001010 A
b10 0
1"
#82000000
0-
0"
#82500000
r1.0235294117647 v
r1.0235294117647 n
r1.0235294117647 f
r1.0235294117647 ^
r1.0235294117647 V
r1.0235294117647 N
1-
b111 E
b110 =
b110 9
b110 5
b10 0
b1001011 A
1"
#83000000
0-
0"
#83500000
r1.021176470588229 N
r1.021176470588229 V
r1.021176470588229 ^
r1.021176470588229 f
r1.021176470588229 n
r1.021176470588229 v
1-
b111 E
b110 =
b110 9
b110 5
b1001100 A
b10 0
1"
#84000000
0-
0"
#84500000
r1.018823529411758 v
r1.018823529411758 n
r1.018823529411758 f
r1.018823529411758 ^
r1.018823529411758 V
r1.018823529411758 N
1-
b111 E
b110 =
b110 9
b110 5
b10 0
b1001101 A
1"
#85000000
0-
0"
#85500000
r1.016470588235288 N
r1.016470588235288 V
r1.016470588235288 ^
r1.016470588235288 f
r1.016470588235288 n
r1.016470588235288 v
1-
b111 E
b110 =
b110 9
b110 5
b1001110 A
b10 0
1"
#86000000
0-
0"
#86500000
r1.014117647058817 v
r1.014117647058817 n
r1.014117647058817 f
r1.014117647058817 ^
r1.014117647058817 V
r1.014117647058817 N
1-
b111 E
b110 =
b110 9
b110 5
b10 0
b1001111 A
1"
#87000000
0-
0"
#87500000
r1.011764705882346 N
r1.011764705882346 V
r1.011764705882346 ^
r1.011764705882346 f
r1.011764705882346 n
r1.011764705882346 v
1-
b111 E
b110 =
b110 9
b110 5
b1010000 A
b10 0
1"
#88000000
0-
0"
#88500000
r1.009411764705876 v
r1.009411764705876 n
r1.009411764705876 f
r1.009411764705876 ^
r1.009411764705876 V
r1.009411764705876 N
1-
b111 E
b110 =
b110 9
b110 5
b10 0
b1010001 A
1"
#89000000
0-
0"
#89500000
r1.007058823529405 N
r1.007058823529405 V
r1.007058823529405 ^
r1.007058823529405 f
r1.007058823529405 n
r1.007058823529405 v
1-
b111 E
b110 =
b110 9
b110 5
b1010010 A
b10 0
1"
#90000000
0-
0"
#90500000
r1.004705882352934 v
r1.004705882352934 n
r1.004705882352934 f
r1.004705882352934 ^
r1.004705882352934 V
r1.004705882352934 N
1-
b111 E
b110 =
b110 9
b110 5
b10 0
b1010011 A
1"
#91000000
0-
0"
#91500000
r1.002352941176464 N
r1.002352941176464 V
r1.002352941176464 ^
r1.002352941176464 f
r1.002352941176464 n
r1.002352941176464 v
1-
b111 E
b110 =
b110 9
b110 5
b1010100 A
b10 0
1"
#92000000
0-
0"
#92500000
r0.9999999999999932 v
r0.9999999999999932 n
r0.9999999999999932 f
r0.9999999999999932 ^
r0.9999999999999932 V
r0.9999999999999932 N
1-
b111 E
b110 =
b110 9
b110 5
b10 0
b1010101 A
1"
#93000000
0-
0"
#93500000
r0.9976470588235227 N
r0.9976470588235227 V
r0.9976470588235227 ^
r0.9976470588235227 f
r0.9976470588235227 n
r0.9976470588235227 v
1-
b111 E
b110 =
b110 9
b110 5
b1010110 A
b10 0
1"
#94000000
0-
0"
#94500000
r0.9952941176470521 v
r0.9952941176470521 n
r0.9952941176470521 f
r0.9952941176470521 ^
r0.9952941176470521 V
r0.9952941176470521 N
1-
b111 E
b110 =
b110 9
b110 5
b10 0
b1010111 A
1"
#95000000
0-
0"
#95500000
r0.9929411764705816 N
r0.9929411764705816 V
r0.9929411764705816 ^
r0.9929411764705816 f
r0.9929411764705816 n
r0.9929411764705816 v
1-
b111 E
b110 =
b110 9
b110 5
b1011000 A
b10 0
1"
#96000000
0-
0"
#96500000
r0.990588235294111 v
r0.990588235294111 n
r0.990588235294111 f
r0.990588235294111 ^
r0.990588235294111 V
r0.990588235294111 N
1-
b111 E
b110 =
b110 9
b110 5
b10 0
b1011001 A
1"
#97000000
0-
0"
#97500000
r0.9882352941176404 N
r0.9882352941176404 V
r0.9882352941176404 ^
r0.9882352941176404 f
r0.9882352941176404 n
r0.9882352941176404 v
1-
b111 E
b110 =
b110 9
b110 5
b1011010 A
b10 0
1"
#98000000
0-
0"
#98500000
r0.9858823529411699 v
r0.9858823529411699 n
r0.9858823529411699 f
r0.9858823529411699 ^
r0.9858823529411699 V
r0.9858823529411699 N
1-
b111 E
b110 =
b110 9
b110 5
b10 0
b1011011 A
1"
