VERILOG/pixelSensor.vcd
$date
	Thu Nov 11 08:57:59 2021
$end
$version
	Icarus Verilog
$end
$timescale
	1ps
$end
$scope module pixelTop_tb $end
$var wire 32 ! DataOut [31:0] $end
$var reg 1 " clk $end
$var reg 1 # reset $end
$scope module pixtop $end
$var wire 32 $ DataBus [31:0] $end
$var wire 1 % anaRAMP $end
$var wire 1 & anaReset $end
$var wire 1 " clk $end
$var wire 1 # reset $end
$var wire 4 ' readBus [3:0] $end
$var wire 1 ( expose $end
$var wire 1 ) erase $end
$var wire 1 * convert $end
$var wire 1 + anaRamp $end
$var wire 1 , anaBias1 $end
$var reg 8 - data [7:0] $end
$var reg 32 . pixelDataOut [31:0] $end
$var integer 32 / i [31:0] $end
$scope begin genblk1[0] $end
$upscope $end
$scope begin genblk1[1] $end
$upscope $end
$scope begin genblk1[2] $end
$upscope $end
$scope begin genblk1[3] $end
$upscope $end
$scope module fsm $end
$var wire 1 " clk $end
$var wire 1 # reset $end
$var reg 1 * convert $end
$var reg 1 ) erase $end
$var reg 1 ( expose $end
$var reg 3 0 next_state [2:0] $end
$var reg 4 1 read [3:0] $end
$var reg 3 2 state [2:0] $end
$var integer 32 3 counter [31:0] $end
$var integer 32 4 pixelToRead [31:0] $end
$upscope $end
$scope module pixArr $end
$var wire 32 5 DATABUS [31:0] $end
$var wire 1 ) ERASE $end
$var wire 1 6 EXPOSE $end
$var wire 1 % RAMP $end
$var wire 4 7 READBUS [3:0] $end
$var wire 1 & RESET $end
$var wire 1 , VBN1 $end
$scope begin genblk1[0] $end
$scope module s $end
$var wire 8 8 DATA [7:0] $end
$var wire 1 ) ERASE $end
$var wire 1 9 EXPOSE $end
$var wire 1 % RAMP $end
$var wire 1 : READ $end
$var wire 1 & RESET $end
$var wire 1 , VBN1 $end
$var reg 1 ; cmp $end
$var reg 8 < p_data [7:0] $end
$var real 1 = adc $end
$var real 1 > lsb $end
$var real 1 ? tmp $end
$var real 1 @ v_erase $end
$upscope $end
$upscope $end
$scope begin genblk1[1] $end
$scope module s $end
$var wire 8 A DATA [7:0] $end
$var wire 1 ) ERASE $end
$var wire 1 B EXPOSE $end
$var wire 1 % RAMP $end
$var wire 1 C READ $end
$var wire 1 & RESET $end
$var wire 1 , VBN1 $end
$var reg 1 D cmp $end
$var reg 8 E p_data [7:0] $end
$var real 1 F adc $end
$var real 1 G lsb $end
$var real 1 H tmp $end
$var real 1 I v_erase $end
$upscope $end
$upscope $end
$scope begin genblk1[2] $end
$scope module s $end
$var wire 8 J DATA [7:0] $end
$var wire 1 ) ERASE $end
$var wire 1 K EXPOSE $end
$var wire 1 % RAMP $end
$var wire 1 L READ $end
$var wire 1 & RESET $end
$var wire 1 , VBN1 $end
$var reg 1 M cmp $end
$var reg 8 N p_data [7:0] $end
$var real 1 O adc $end
$var real 1 P lsb $end
$var real 1 Q tmp $end
$var real 1 R v_erase $end
$upscope $end
$upscope $end
$scope begin genblk1[3] $end
$scope module s $end
$var wire 8 S DATA [7:0] $end
$var wire 1 ) ERASE $end
$var wire 1 T EXPOSE $end
$var wire 1 % RAMP $end
$var wire 1 U READ $end
$var wire 1 & RESET $end
$var wire 1 , VBN1 $end
$var reg 1 V cmp $end
$var reg 8 W p_data [7:0] $end
$var real 1 X adc $end
$var real 1 Y lsb $end
$var real 1 Z tmp $end
$var real 1 [ v_erase $end
$upscope $end
$upscope $end
$upscope $end
$upscope $end
$upscope $end
$enddefinitions $end
#500000
$dumpvars
r1.2 [
r0 Z
r0.004705882352941176 Y
r0 X
bx W
xV
xU
zT
bx S
r1.2 R
r0 Q
r0.004705882352941176 P
r0 O
bx N
xM
xL
zK
bx J
r1.2 I
r0 H
r0.004705882352941176 G
r0 F
bx E
xD
xC
zB
bx A
r1.2 @
r0 ?
r0.004705882352941176 >
r0 =
bx <
x;
x:
z9
bx 8
bx 7
z6
bx 5
b0 4
b0 3
b0 2
bx 1
b0 0
b100 /
b0 .
b0 -
x,
0+
0*
x)
x(
bx '
1&
z%
bx $
0#
1"
b0 !
$end
#1000000
b0 8
b0 A
b0 J
b0 S
b0 $
b0 5
0:
0C
0L
0U
0V
b0 W
r1.2 Z
0M
b0 N
r1.2 Q
0D
b0 E
r1.2 H
0;
b0 <
r1.2 ?
0(
b0 '
b0 1
b0 7
1)
0,
0"
#1500000
b1 3
b100 /
1"
#2000000
0"
#2500000
b100 /
b10 3
1"
#3000000
0"
#3500000
b11 3
b100 /
1"
#4000000
0"
#4500000
b100 /
b100 3
1"
#5000000
0"
#5500000
b101 3
b100 /
1"
#6000000
0"
#6500000
b100 2
b1 0
b100 /
b110 3
1"
#7000000
0)
0"
#7500000
b1 2
b0 3
b100 /
1"
#8000000
1(
0"
#8500000
1,
b100 /
b1 3
1"
#9000000
0,
0"
#9500000
1,
b10 3
b100 /
1"
#10000000
0,
0"
#10500000
1,
b100 /
b11 3
1"
#11000000
0,
0"
#11500000
1,
b100 3
b100 /
1"
#12000000
0,
0"
#12500000
1,
b100 /
b101 3
1"
#13000000
0,
0"
#13500000
1,
b110 3
b100 /
1"
#14000000
0,
0"
#14500000
1,
b100 /
b111 3
1"
#15000000
0,
0"
#15500000
1,
b1000 3
b100 /
1"
#16000000
0,
0"
#16500000
1,
b100 /
b1001 3
1"
#17000000
0,
0"
#17500000
1,
b1010 3
b100 /
1"
#18000000
0,
0"
#18500000
1,
b100 /
b1011 3
1"
#19000000
0,
0"
#19500000
1,
b1100 3
b100 /
1"
#20000000
0,
0"
#20500000
1,
b100 /
b1101 3
1"
#21000000
0,
0"
#21500000
1,
b1110 3
b100 /
1"
#22000000
0,
0"
#22500000
1,
b100 /
b1111 3
1"
#23000000
0,
0"
#23500000
1,
b10000 3
b100 /
1"
#24000000
0,
0"
#24500000
1,
b100 /
b10001 3
1"
#25000000
0,
0"
#25500000
1,
b10010 3
b100 /
1"
#26000000
0,
0"
#26500000
1,
b100 /
b10011 3
1"
#27000000
0,
0"
#27500000
1,
b10100 3
b100 /
1"
#28000000
0,
0"
#28500000
1,
b100 /
b10101 3
1"
#29000000
0,
0"
#29500000
1,
b10110 3
b100 /
1"
#30000000
0,
0"
#30500000
1,
b100 /
b10111 3
1"
#31000000
0,
0"
#31500000
1,
b11000 3
b100 /
1"
#32000000
0,
0"
#32500000
1,
b100 /
b11001 3
1"
#33000000
0,
0"
#33500000
1,
b11010 3
b100 /
1"
#34000000
0,
0"
#34500000
1,
b100 /
b11011 3
1"
#35000000
0,
0"
#35500000
1,
b11100 3
b100 /
1"
#36000000
0,
0"
#36500000
1,
b100 /
b11101 3
1"
#37000000
0,
0"
#37500000
1,
b11110 3
b100 /
1"
#38000000
0,
0"
#38500000
1,
b100 /
b11111 3
1"
#39000000
0,
0"
#39500000
1,
b100000 3
b100 /
1"
#40000000
0,
0"
#40500000
1,
b100 /
b100001 3
1"
#41000000
0,
0"
#41500000
1,
b100010 3
b100 /
1"
#42000000
0,
0"
#42500000
1,
b100 /
b100011 3
1"
#43000000
0,
0"
#43500000
1,
b100100 3
b100 /
1"
#44000000
0,
0"
#44500000
1,
b100 /
b100101 3
1"
#45000000
0,
0"
#45500000
1,
b100110 3
b100 /
1"
#46000000
0,
0"
#46500000
1,
b100 /
b100111 3
1"
#47000000
0,
0"
#47500000
1,
b101000 3
b100 /
1"
#48000000
0,
0"
#48500000
1,
b100 /
b101001 3
1"
#49000000
0,
0"
#49500000
1,
b101010 3
b100 /
1"
#50000000
0,
0"
#50500000
1,
b100 /
b101011 3
1"
#51000000
0,
0"
#51500000
1,
b101100 3
b100 /
1"
#52000000
0,
0"
#52500000
1,
b100 /
b101101 3
1"
#53000000
0,
0"
#53500000
1,
b101110 3
b100 /
1"
#54000000
0,
0"
#54500000
1,
b100 /
b101111 3
1"
#55000000
0,
0"
#55500000
1,
b110000 3
b100 /
1"
#56000000
0,
0"
#56500000
1,
b100 /
b110001 3
1"
#57000000
0,
0"
#57500000
1,
b110010 3
b100 /
1"
#58000000
0,
0"
#58500000
1,
b100 /
b110011 3
1"
#59000000
0,
0"
#59500000
1,
b110100 3
b100 /
1"
#60000000
0,
0"
#60500000
1,
b100 /
b110101 3
1"
#61000000
0,
0"
#61500000
1,
b110110 3
b100 /
1"
#62000000
0,
0"
#62500000
1,
b100 /
b110111 3
1"
#63000000
0,
0"
#63500000
1,
b111000 3
b100 /
1"
#64000000
0,
0"
#64500000
1,
b100 /
b111001 3
1"
#65000000
0,
0"
#65500000
1,
b111010 3
b100 /
1"
#66000000
0,
0"
#66500000
1,
b100 /
b111011 3
1"
#67000000
0,
0"
#67500000
1,
b111100 3
b100 /
1"
#68000000
0,
0"
#68500000
1,
b100 /
b111101 3
1"
#69000000
0,
0"
#69500000
1,
b111110 3
b100 /
1"
#70000000
0,
0"
#70500000
1,
b100 /
b111111 3
1"
#71000000
0,
0"
#71500000
1,
b1000000 3
b100 /
1"
#72000000
0,
0"
#72500000
1,
b100 /
b1000001 3
1"
#73000000
0,
0"
#73500000
1,
b1000010 3
b100 /
1"
#74000000
0,
0"
#74500000
1,
b100 /
b1000011 3
1"
#75000000
0,
0"
#75500000
1,
b1000100 3
b100 /
1"
#76000000
0,
0"
#76500000
1,
b100 /
b1000101 3
1"
#77000000
0,
0"
#77500000
1,
b1000110 3
b100 /
1"
#78000000
0,
0"
#78500000
1,
b100 /
b1000111 3
1"
#79000000
0,
0"
#79500000
1,
b1001000 3
b100 /
1"
#80000000
0,
0"
#80500000
1,
b100 /
b1001001 3
1"
#81000000
0,
0"
#81500000
1,
b1001010 3
b100 /
1"
#82000000
0,
0"
#82500000
1,
b100 /
b1001011 3
1"
#83000000
0,
0"
#83500000
1,
b1001100 3
b100 /
1"
#84000000
0,
0"
#84500000
1,
b100 /
b1001101 3
1"
#85000000
0,
0"
#85500000
1,
b1001110 3
b100 /
1"
#86000000
0,
0"
#86500000
1,
b100 /
b1001111 3
1"
#87000000
0,
0"
#87500000
1,
b1010000 3
b100 /
1"
#88000000
0,
0"
#88500000
1,
b100 /
b1010001 3
1"
#89000000
0,
0"
#89500000
1,
b1010010 3
b100 /
1"
#90000000
0,
0"
#90500000
1,
b100 /
b1010011 3
1"
#91000000
0,
0"
#91500000
1,
b1010100 3
b100 /
1"
#92000000
0,
0"
#92500000
1,
b100 /
b1010101 3
1"
#93000000
0,
0"
#93500000
1,
b1010110 3
b100 /
1"
#94000000
0,
0"
#94500000
1,
b100 /
b1010111 3
1"
#95000000
0,
0"
#95500000
1,
b1011000 3
b100 /
1"
#96000000
0,
0"
#96500000
1,
b100 /
b1011001 3
1"
#97000000
0,
0"
#97500000
1,
b1011010 3
b100 /
1"
#98000000
0,
0"
#98500000
1,
b100 /
b1011011 3
1"
#99000000
0,
0"
#99500000
1,
b1011100 3
b100 /
1"
#100000000
0,
0"
#100500000
1,
b100 /
b1011101 3
1"
#101000000
0,
0"
#101500000
1,
b1011110 3
b100 /
1"
#102000000
0,
0"
#102500000
1,
b100 /
b1011111 3
1"
#103000000
0,
0"
#103500000
1,
b1100000 3
b100 /
1"
#104000000
0,
0"
#104500000
1,
b100 /
b1100001 3
1"
#105000000
0,
0"
#105500000
1,
b1100010 3
b100 /
1"
#106000000
0,
0"
#106500000
1,
b100 /
b1100011 3
1"
#107000000
0,
0"
#107500000
1,
b1100100 3
b100 /
1"
#108000000
0,
0"
#108500000
1,
b100 /
b1100101 3
1"
#109000000
0,
0"
#109500000
1,
b1100110 3
b100 /
1"
#110000000
0,
0"
#110500000
1,
b100 /
b1100111 3
1"
#111000000
0,
0"
#111500000
1,
b1101000 3
b100 /
1"
#112000000
0,
0"
#112500000
1,
b100 /
b1101001 3
1"
#113000000
0,
0"
#113500000
1,
b1101010 3
b100 /
1"
#114000000
0,
0"
#114500000
1,
b100 /
b1101011 3
1"
#115000000
0,
0"
#115500000
1,
b1101100 3
b100 /
1"
#116000000
0,
0"
#116500000
1,
b100 /
b1101101 3
1"
#117000000
0,
0"
#117500000
1,
b1101110 3
b100 /
1"
#118000000
0,
0"
#118500000
1,
b100 /
b1101111 3
1"
#119000000
0,
0"
#119500000
1,
b1110000 3
b100 /
1"
#120000000
0,
0"
#120500000
1,
b100 /
b1110001 3
1"
#121000000
0,
0"
#121500000
1,
b1110010 3
b100 /
1"
#122000000
0,
0"
#122500000
1,
b100 /
b1110011 3
1"
#123000000
0,
0"
#123500000
1,
b1110100 3
b100 /
1"
#124000000
0,
0"
#124500000
1,
b100 /
b1110101 3
1"
#125000000
0,
0"
#125500000
1,
b1110110 3
b100 /
1"
#126000000
0,
0"
#126500000
1,
b100 /
b1110111 3
1"
#127000000
0,
0"
#127500000
1,
b1111000 3
b100 /
1"
#128000000
0,
0"
#128500000
1,
b100 /
b1111001 3
1"
#129000000
0,
0"
#129500000
1,
b1111010 3
b100 /
1"
#130000000
0,
0"
#130500000
1,
b100 /
b1111011 3
1"
#131000000
0,
0"
#131500000
1,
b1111100 3
b100 /
1"
#132000000
0,
0"
#132500000
1,
b100 /
b1111101 3
1"
#133000000
0,
0"
#133500000
1,
b1111110 3
b100 /
1"
#134000000
0,
0"
#134500000
1,
b100 /
b1111111 3
1"
#135000000
0,
0"
#135500000
1,
b10000000 3
b100 /
1"
#136000000
0,
0"
#136500000
1,
b100 /
b10000001 3
1"
#137000000
0,
0"
#137500000
1,
b10000010 3
b100 /
1"
#138000000
0,
0"
#138500000
1,
b100 /
b10000011 3
1"
#139000000
0,
0"
#139500000
1,
b10000100 3
b100 /
1"
#140000000
0,
0"
#140500000
1,
b100 /
b10000101 3
1"
#141000000
0,
0"
#141500000
1,
b10000110 3
b100 /
1"
#142000000
0,
0"
#142500000
1,
b100 /
b10000111 3
1"
#143000000
0,
0"
#143500000
1,
b10001000 3
b100 /
1"
#144000000
0,
0"
#144500000
1,
b100 /
b10001001 3
1"
#145000000
0,
0"
#145500000
1,
b10001010 3
b100 /
1"
#146000000
0,
0"
#146500000
1,
b100 /
b10001011 3
1"
#147000000
0,
0"
#147500000
1,
b10001100 3
b100 /
1"
#148000000
0,
0"
#148500000
1,
b100 /
b10001101 3
1"
#149000000
0,
0"
#149500000
1,
b10001110 3
b100 /
1"
#150000000
0,
0"
#150500000
1,
b100 /
b10001111 3
1"
#151000000
0,
0"
#151500000
1,
b10010000 3
b100 /
1"
#152000000
0,
0"
#152500000
1,
b100 /
b10010001 3
1"
#153000000
0,
0"
#153500000
1,
b10010010 3
b100 /
1"
#154000000
0,
0"
#154500000
1,
b100 /
b10010011 3
1"
#155000000
0,
0"
#155500000
1,
b10010100 3
b100 /
1"
#156000000
0,
0"
#156500000
1,
b100 /
b10010101 3
1"
#157000000
0,
0"
#157500000
1,
b10010110 3
b100 /
1"
#158000000
0,
0"
#158500000
1,
b100 /
b10010111 3
1"
#159000000
0,
0"
#159500000
1,
b10011000 3
b100 /
1"
#160000000
0,
0"
#160500000
1,
b100 /
b10011001 3
1"
#161000000
0,
0"
#161500000
1,
b10011010 3
b100 /
1"
#162000000
0,
0"
#162500000
1,
b100 /
b10011011 3
1"
#163000000
0,
0"
#163500000
1,
b10011100 3
b100 /
1"
#164000000
0,
0"
#164500000
1,
b100 /
b10011101 3
1"
#165000000
0,
0"
#165500000
1,
b10011110 3
b100 /
1"
#166000000
0,
0"
#166500000
1,
b100 /
b10011111 3
1"
#167000000
0,
0"
#167500000
1,
b10100000 3
b100 /
1"
#168000000
0,
0"
#168500000
1,
b100 /
b10100001 3
1"
#169000000
0,
0"
#169500000
1,
b10100010 3
b100 /
1"
#170000000
0,
0"
#170500000
1,
b100 /
b10100011 3
1"
#171000000
0,
0"
#171500000
1,
b10100100 3
b100 /
1"
#172000000
0,
0"
#172500000
1,
b100 /
b10100101 3
1"
#173000000
0,
0"
#173500000
1,
b10100110 3
b100 /
1"
#174000000
0,
0"
#174500000
1,
b100 /
b10100111 3
1"
#175000000
0,
0"
#175500000
1,
b10101000 3
b100 /
1"
#176000000
0,
0"
#176500000
1,
b100 /
b10101001 3
1"
#177000000
0,
0"
#177500000
1,
b10101010 3
b100 /
1"
#178000000
0,
0"
#178500000
1,
b100 /
b10101011 3
1"
#179000000
0,
0"
#179500000
1,
b10101100 3
b100 /
1"
#180000000
0,
0"
#180500000
1,
b100 /
b10101101 3
1"
#181000000
0,
0"
#181500000
1,
b10101110 3
b100 /
1"
#182000000
0,
0"
#182500000
1,
b100 /
b10101111 3
1"
#183000000
0,
0"
#183500000
1,
b10110000 3
b100 /
1"
#184000000
0,
0"
#184500000
1,
b100 /
b10110001 3
1"
#185000000
0,
0"
#185500000
1,
b10110010 3
b100 /
1"
#186000000
0,
0"
#186500000
1,
b100 /
b10110011 3
1"
#187000000
0,
0"
#187500000
1,
b10110100 3
b100 /
1"
#188000000
0,
0"
#188500000
1,
b100 /
b10110101 3
1"
#189000000
0,
0"
#189500000
1,
b10110110 3
b100 /
1"
#190000000
0,
0"
#190500000
1,
b100 /
b10110111 3
1"
#191000000
0,
0"
#191500000
1,
b10111000 3
b100 /
1"
#192000000
0,
0"
#192500000
1,
b100 /
b10111001 3
1"
#193000000
0,
0"
#193500000
1,
b10111010 3
b100 /
1"
#194000000
0,
0"
#194500000
1,
b100 /
b10111011 3
1"
#195000000
0,
0"
#195500000
1,
b10111100 3
b100 /
1"
#196000000
0,
0"
#196500000
1,
b100 /
b10111101 3
1"
#197000000
0,
0"
#197500000
1,
b10111110 3
b100 /
1"
#198000000
0,
0"
#198500000
1,
b100 /
b10111111 3
1"
#199000000
0,
0"
#199500000
1,
b11000000 3
b100 /
1"
#200000000
0,
0"
#200500000
1,
b100 /
b11000001 3
1"
#201000000
0,
0"
#201500000
1,
b11000010 3
b100 /
1"
#202000000
0,
0"
#202500000
1,
b100 /
b11000011 3
1"
#203000000
0,
0"
#203500000
1,
b11000100 3
b100 /
1"
#204000000
0,
0"
#204500000
1,
b100 /
b11000101 3
1"
#205000000
0,
0"
#205500000
1,
b11000110 3
b100 /
1"
#206000000
0,
0"
#206500000
1,
b100 /
b11000111 3
1"
#207000000
0,
0"
#207500000
1,
b11001000 3
b100 /
1"
#208000000
0,
0"
#208500000
1,
b100 /
b11001001 3
1"
#209000000
0,
0"
#209500000
1,
b11001010 3
b100 /
1"
#210000000
0,
0"
#210500000
1,
b100 /
b11001011 3
1"
#211000000
0,
0"
#211500000
1,
b11001100 3
b100 /
1"
#212000000
0,
0"
#212500000
1,
b100 /
b11001101 3
1"
#213000000
0,
0"
#213500000
1,
b11001110 3
b100 /
1"
#214000000
0,
0"
#214500000
1,
b100 /
b11001111 3
1"
#215000000
0,
0"
#215500000
1,
b11010000 3
b100 /
1"
#216000000
0,
0"
#216500000
1,
b100 /
b11010001 3
1"
#217000000
0,
0"
#217500000
1,
b11010010 3
b100 /
1"
#218000000
0,
0"
#218500000
1,
b100 /
b11010011 3
1"
#219000000
0,
0"
#219500000
1,
b11010100 3
b100 /
1"
#220000000
0,
0"
#220500000
1,
b100 /
b11010101 3
1"
#221000000
0,
0"
#221500000
1,
b11010110 3
b100 /
1"
#222000000
0,
0"
#222500000
1,
b100 /
b11010111 3
1"
#223000000
0,
0"
#223500000
1,
b11011000 3
b100 /
1"
#224000000
0,
0"
#224500000
1,
b100 /
b11011001 3
1"
#225000000
0,
0"
#225500000
1,
b11011010 3
b100 /
1"
#226000000
0,
0"
#226500000
1,
b100 /
b11011011 3
1"
#227000000
0,
0"
#227500000
1,
b11011100 3
b100 /
1"
#228000000
0,
0"
#228500000
1,
b100 /
b11011101 3
1"
#229000000
0,
0"
#229500000
1,
b11011110 3
b100 /
1"
#230000000
0,
0"
#230500000
1,
b100 /
b11011111 3
1"
#231000000
0,
0"
#231500000
1,
b11100000 3
b100 /
1"
#232000000
0,
0"
#232500000
1,
b100 /
b11100001 3
1"
#233000000
0,
0"
#233500000
1,
b11100010 3
b100 /
1"
#234000000
0,
0"
#234500000
1,
b100 /
b11100011 3
1"
#235000000
0,
0"
#235500000
1,
b11100100 3
b100 /
1"
#236000000
0,
0"
#236500000
1,
b100 /
b11100101 3
1"
#237000000
0,
0"
#237500000
1,
b11100110 3
b100 /
1"
#238000000
0,
0"
#238500000
1,
b100 /
b11100111 3
1"
#239000000
0,
0"
#239500000
1,
b11101000 3
b100 /
1"
#240000000
0,
0"
#240500000
1,
b100 /
b11101001 3
1"
#241000000
0,
0"
#241500000
1,
b11101010 3
b100 /
1"
#242000000
0,
0"
#242500000
1,
b100 /
b11101011 3
1"
#243000000
0,
0"
#243500000
1,
b11101100 3
b100 /
1"
#244000000
0,
0"
#244500000
1,
b100 /
b11101101 3
1"
#245000000
0,
0"
#245500000
1,
b11101110 3
b100 /
1"
#246000000
0,
0"
#246500000
1,
b100 /
b11101111 3
1"
#247000000
0,
0"
#247500000
1,
b11110000 3
b100 /
1"
#248000000
0,
0"
#248500000
1,
b100 /
b11110001 3
1"
#249000000
0,
0"
#249500000
1,
b11110010 3
b100 /
1"
#250000000
0,
0"
#250500000
1,
b100 /
b11110011 3
1"
#251000000
0,
0"
#251500000
1,
b11110100 3
b100 /
1"
#252000000
0,
0"
#252500000
1,
b100 /
b11110101 3
1"
#253000000
0,
0"
#253500000
1,
b11110110 3
b100 /
1"
#254000000
0,
0"
#254500000
1,
b100 /
b11110111 3
1"
#255000000
0,
0"
#255500000
1,
b11111000 3
b100 /
1"
#256000000
0,
0"
#256500000
1,
b100 /
b11111001 3
1"
#257000000
0,
0"
#257500000
1,
b11111010 3
b100 /
1"
#258000000
0,
0"
#258500000
1,
b100 /
b11111011 3
1"
#259000000
0,
0"
#259500000
1,
b11111100 3
b100 /
1"
#260000000
0,
0"
#260500000
1,
b100 /
b11111101 3
1"
#261000000
0,
0"
#261500000
1,
b11111110 3
b100 /
1"
#262000000
0,
0"
#262500000
1,
b100 /
b11111111 3
1"
#263000000
0,
0"
#263500000
b100 2
b10 0
1,
b100000000 3
b100 /
1"
#264000000
0(
0,
0"
#264500000
b10 2
b100 /
b0 3
1"
#265000000
1*
0"
#265500000
b1 <
b1 E
b1 N
b1 W
b1 8
b1 A
b1 J
b1 S
b1000000010000000100000001 $
b1000000010000000100000001 5
1+
b1 3
b1 -
b100 /
1"
#266000000
0+
0"
#266500000
b10 <
b10 E
b10 N
b10 W
b10 8
b10 A
b10 J
b10 S
b10000000100000001000000010 $
b10000000100000001000000010 5
1+
b100 /
b10 -
b10 3
1"
#267000000
0+
0"
#267500000
b11 <
b11 E
b11 N
b11 W
b11 8
b11 A
b11 J
b11 S
b11000000110000001100000011 $
b11000000110000001100000011 5
1+
b11 3
b11 -
b100 /
1"
#268000000
0+
0"
#268500000
b100 <
b100 E
b100 N
b100 W
b100 8
b100 A
b100 J
b100 S
b100000001000000010000000100 $
b100000001000000010000000100 5
1+
b100 /
b100 -
b100 3
1"
#269000000
0+
0"
#269500000
b101 <
b101 E
b101 N
b101 W
b101 8
b101 A
b101 J
b101 S
b101000001010000010100000101 $
b101000001010000010100000101 5
1+
b101 3
b101 -
b100 /
1"
#270000000
0+
0"
#270500000
b110 <
b110 E
b110 N
b110 W
b110 8
b110 A
b110 J
b110 S
b110000001100000011000000110 $
b110000001100000011000000110 5
1+
b100 /
b110 -
b110 3
1"
#271000000
0+
0"
#271500000
b111 <
b111 E
b111 N
b111 W
b111 8
b111 A
b111 J
b111 S
b111000001110000011100000111 $
b111000001110000011100000111 5
1+
b111 3
b111 -
b100 /
1"
#272000000
0+
0"
#272500000
b1000 <
b1000 E
b1000 N
b1000 W
b1000 8
b1000 A
b1000 J
b1000 S
b1000000010000000100000001000 $
b1000000010000000100000001000 5
1+
b100 /
b1000 -
b1000 3
1"
#273000000
0+
0"
#273500000
b1001 <
b1001 E
b1001 N
b1001 W
b1001 8
b1001 A
b1001 J
b1001 S
b1001000010010000100100001001 $
b1001000010010000100100001001 5
1+
b1001 3
b1001 -
b100 /
1"
#274000000
0+
0"
#274500000
b1010 <
b1010 E
b1010 N
b1010 W
b1010 8
b1010 A
b1010 J
b1010 S
b1010000010100000101000001010 $
b1010000010100000101000001010 5
1+
b100 /
b1010 -
b1010 3
1"
#275000000
0+
0"
#275500000
b1011 <
b1011 E
b1011 N
b1011 W
b1011 8
b1011 A
b1011 J
b1011 S
b1011000010110000101100001011 $
b1011000010110000101100001011 5
1+
b1011 3
b1011 -
b100 /
1"
#276000000
0+
0"
#276500000
b1100 <
b1100 E
b1100 N
b1100 W
b1100 8
b1100 A
b1100 J
b1100 S
b1100000011000000110000001100 $
b1100000011000000110000001100 5
1+
b100 /
b1100 -
b1100 3
1"
#277000000
0+
0"
#277500000
b1101 <
b1101 E
b1101 N
b1101 W
b1101 8
b1101 A
b1101 J
b1101 S
b1101000011010000110100001101 $
b1101000011010000110100001101 5
1+
b1101 3
b1101 -
b100 /
1"
#278000000
0+
0"
#278500000
b1110 <
b1110 E
b1110 N
b1110 W
b1110 8
b1110 A
b1110 J
b1110 S
b1110000011100000111000001110 $
b1110000011100000111000001110 5
1+
b100 /
b1110 -
b1110 3
1"
#279000000
0+
0"
#279500000
b1111 <
b1111 E
b1111 N
b1111 W
b1111 8
b1111 A
b1111 J
b1111 S
b1111000011110000111100001111 $
b1111000011110000111100001111 5
1+
b1111 3
b1111 -
b100 /
1"
#280000000
0+
0"
#280500000
b10000 <
b10000 E
b10000 N
b10000 W
b10000 8
b10000 A
b10000 J
b10000 S
b10000000100000001000000010000 $
b10000000100000001000000010000 5
1+
b100 /
b10000 -
b10000 3
1"
#281000000
0+
0"
#281500000
b10001 <
b10001 E
b10001 N
b10001 W
b10001 8
b10001 A
b10001 J
b10001 S
b10001000100010001000100010001 $
b10001000100010001000100010001 5
1+
b10001 3
b10001 -
b100 /
1"
#282000000
0+
0"
#282500000
b10010 <
b10010 E
b10010 N
b10010 W
b10010 8
b10010 A
b10010 J
b10010 S
b10010000100100001001000010010 $
b10010000100100001001000010010 5
1+
b100 /
b10010 -
b10010 3
1"
#283000000
0+
0"
#283500000
b10011 <
b10011 E
b10011 N
b10011 W
b10011 8
b10011 A
b10011 J
b10011 S
b10011000100110001001100010011 $
b10011000100110001001100010011 5
1+
b10011 3
b10011 -
b100 /
1"
#284000000
0+
0"
#284500000
b10100 <
b10100 E
b10100 N
b10100 W
b10100 8
b10100 A
b10100 J
b10100 S
b10100000101000001010000010100 $
b10100000101000001010000010100 5
1+
b100 /
b10100 -
b10100 3
1"
#285000000
0+
0"
#285500000
b10101 <
b10101 E
b10101 N
b10101 W
b10101 8
b10101 A
b10101 J
b10101 S
b10101000101010001010100010101 $
b10101000101010001010100010101 5
1+
b10101 3
b10101 -
b100 /
1"
#286000000
0+
0"
#286500000
b10110 <
b10110 E
b10110 N
b10110 W
b10110 8
b10110 A
b10110 J
b10110 S
b10110000101100001011000010110 $
b10110000101100001011000010110 5
1+
b100 /
b10110 -
b10110 3
1"
#287000000
0+
0"
#287500000
b10111 <
b10111 E
b10111 N
b10111 W
b10111 8
b10111 A
b10111 J
b10111 S
b10111000101110001011100010111 $
b10111000101110001011100010111 5
1+
b10111 3
b10111 -
b100 /
1"
#288000000
0+
0"
#288500000
b11000 <
b11000 E
b11000 N
b11000 W
b11000 8
b11000 A
b11000 J
b11000 S
b11000000110000001100000011000 $
b11000000110000001100000011000 5
1+
b100 /
b11000 -
b11000 3
1"
#289000000
0+
0"
#289500000
b11001 <
b11001 E
b11001 N
b11001 W
b11001 8
b11001 A
b11001 J
b11001 S
b11001000110010001100100011001 $
b11001000110010001100100011001 5
1+
b11001 3
b11001 -
b100 /
1"
#290000000
0+
0"
#290500000
b11010 <
b11010 E
b11010 N
b11010 W
b11010 8
b11010 A
b11010 J
b11010 S
b11010000110100001101000011010 $
b11010000110100001101000011010 5
1+
b100 /
b11010 -
b11010 3
1"
#291000000
0+
0"
#291500000
b11011 <
b11011 E
b11011 N
b11011 W
b11011 8
b11011 A
b11011 J
b11011 S
b11011000110110001101100011011 $
b11011000110110001101100011011 5
1+
b11011 3
b11011 -
b100 /
1"
#292000000
0+
0"
#292500000
b11100 <
b11100 E
b11100 N
b11100 W
b11100 8
b11100 A
b11100 J
b11100 S
b11100000111000001110000011100 $
b11100000111000001110000011100 5
1+
b100 /
b11100 -
b11100 3
1"
#293000000
0+
0"
#293500000
b11101 <
b11101 E
b11101 N
b11101 W
b11101 8
b11101 A
b11101 J
b11101 S
b11101000111010001110100011101 $
b11101000111010001110100011101 5
1+
b11101 3
b11101 -
b100 /
1"
#294000000
0+
0"
#294500000
b11110 <
b11110 E
b11110 N
b11110 W
b11110 8
b11110 A
b11110 J
b11110 S
b11110000111100001111000011110 $
b11110000111100001111000011110 5
1+
b100 /
b11110 -
b11110 3
1"
#295000000
0+
0"
#295500000
b11111 <
b11111 E
b11111 N
b11111 W
b11111 8
b11111 A
b11111 J
b11111 S
b11111000111110001111100011111 $
b11111000111110001111100011111 5
1+
b11111 3
b11111 -
b100 /
1"
#296000000
0+
0"
#296500000
b100000 <
b100000 E
b100000 N
b100000 W
b100000 8
b100000 A
b100000 J
b100000 S
b100000001000000010000000100000 $
b100000001000000010000000100000 5
1+
b100 /
b100000 -
b100000 3
1"
#297000000
0+
0"
#297500000
b100001 <
b100001 E
b100001 N
b100001 W
b100001 8
b100001 A
b100001 J
b100001 S
b100001001000010010000100100001 $
b100001001000010010000100100001 5
1+
b100001 3
b100001 -
b100 /
1"
#298000000
0+
0"
#298500000
b100010 <
b100010 E
b100010 N
b100010 W
b100010 8
b100010 A
b100010 J
b100010 S
b100010001000100010001000100010 $
b100010001000100010001000100010 5
1+
b100 /
b100010 -
b100010 3
1"
#299000000
0+
0"
#299500000
b100011 <
b100011 E
b100011 N
b100011 W
b100011 8
b100011 A
b100011 J
b100011 S
b100011001000110010001100100011 $
b100011001000110010001100100011 5
1+
b100011 3
b100011 -
b100 /
1"
